\relax 
\providecommand\hyper@newdestlabel[2]{}
\@writefile{toc}{\contentsline {chapter}{\numberline {5}Various USB to serial converter with Linux}{59}{chapter.5}}
\@writefile{lof}{\addvspace {10\p@ }}
\@writefile{lot}{\addvspace {10\p@ }}
\@writefile{toc}{\contentsline {section}{\numberline {5.1}The CH340G and the CP2102 converter }{59}{section.5.1}}
\@writefile{lot}{\contentsline {table}{\numberline {5.1}{\ignorespaces Tested baud rates of the CH340 and CP2102 chips at lower baud speed\relax }}{60}{table.caption.63}}
\newlabel{tab:CH340baudl}{{5.1}{60}{Tested baud rates of the CH340 and CP2102 chips at lower baud speed\relax }{table.caption.63}{}}
\@writefile{lot}{\contentsline {table}{\numberline {5.2}{\ignorespaces Tested baud rates of the CH340 and CP2102 chips at higher baud speed\relax }}{61}{table.caption.64}}
\newlabel{tab:CH340baudh}{{5.2}{61}{Tested baud rates of the CH340 and CP2102 chips at higher baud speed\relax }{table.caption.64}{}}
\@writefile{toc}{\contentsline {section}{\numberline {5.2}The PL-2303 and the FT232R converter}{61}{section.5.2}}
\@writefile{lot}{\contentsline {table}{\numberline {5.3}{\ignorespaces Tested baud rates of the PL-2303 and FT232R chips at lower baud speed\relax }}{63}{table.caption.65}}
\newlabel{tab:PL2302baudl}{{5.3}{63}{Tested baud rates of the PL-2303 and FT232R chips at lower baud speed\relax }{table.caption.65}{}}
\@writefile{lot}{\contentsline {table}{\numberline {5.4}{\ignorespaces Tested baud rates of the PL-2303 and FT232R chips at higher baud speed\relax }}{64}{table.caption.66}}
\newlabel{tab:PL2302baudh}{{5.4}{64}{Tested baud rates of the PL-2303 and FT232R chips at higher baud speed\relax }{table.caption.66}{}}
\@writefile{toc}{\contentsline {section}{\numberline {5.3}The USB-serial converter with the ATmega16X2 software}{64}{section.5.3}}
\@writefile{lot}{\contentsline {table}{\numberline {5.5}{\ignorespaces Tested baud rates of the ATmega16X2 at lower baud speed\relax }}{65}{table.caption.67}}
\newlabel{tab:mega16xbaudl}{{5.5}{65}{Tested baud rates of the ATmega16X2 at lower baud speed\relax }{table.caption.67}{}}
\@writefile{lot}{\contentsline {table}{\numberline {5.6}{\ignorespaces Tested baud rates of the ATmega16X2 at higher baud speed\relax }}{66}{table.caption.68}}
\newlabel{tab:mega16xbaudh}{{5.6}{66}{Tested baud rates of the ATmega16X2 at higher baud speed\relax }{table.caption.68}{}}
\@writefile{toc}{\contentsline {section}{\numberline {5.4}Der Pololu USB AVR Programmer v2.1}{66}{section.5.4}}
\@writefile{lot}{\contentsline {table}{\numberline {5.7}{\ignorespaces tested Baud rates of the Pololu serial Interface at lower Baud speed\relax }}{67}{table.caption.69}}
\newlabel{tab:pololubaudl}{{5.7}{67}{tested Baud rates of the Pololu serial Interface at lower Baud speed\relax }{table.caption.69}{}}
\@writefile{lot}{\contentsline {table}{\numberline {5.8}{\ignorespaces tested Baud rates of the Pololu serial interface at higher Baud speed\relax }}{68}{table.caption.70}}
\newlabel{tab:pololubaudh}{{5.8}{68}{tested Baud rates of the Pololu serial interface at higher Baud speed\relax }{table.caption.70}{}}
\@setckpt{USBserial}{
\setcounter{page}{69}
\setcounter{equation}{0}
\setcounter{enumi}{0}
\setcounter{enumii}{0}
\setcounter{enumiii}{0}
\setcounter{enumiv}{0}
\setcounter{footnote}{0}
\setcounter{mpfootnote}{0}
\setcounter{part}{0}
\setcounter{chapter}{5}
\setcounter{section}{4}
\setcounter{subsection}{0}
\setcounter{subsubsection}{0}
\setcounter{paragraph}{0}
\setcounter{subparagraph}{0}
\setcounter{figure}{0}
\setcounter{table}{8}
\setcounter{ContinuedFloat}{0}
\setcounter{subfigure}{0}
\setcounter{subtable}{0}
\setcounter{Item}{0}
\setcounter{Hfootnote}{0}
\setcounter{bookmark@seq@number}{54}
\setcounter{float@type}{4}
\setcounter{section@level}{1}
}
